%YAML 1.1
%TAG !u! tag:unity3d.com,2011:
--- !u!114 &11400000
MonoBehaviour:
  m_ObjectHideFlags: 0
  m_CorrespondingSourceObject: {fileID: 0}
  m_PrefabInstance: {fileID: 0}
  m_PrefabAsset: {fileID: 0}
  m_GameObject: {fileID: 0}
  m_Enabled: 1
  m_EditorHideFlags: 0
  m_Script: {fileID: 11500000, guid: acc007f106a2c8f479fbddee2244ec52, type: 3}
  m_Name: PhysicsGun
  m_EditorClassIdentifier: 
  itemName: Pulse Gun
  itemTooltip: 
  categoryName: Tools
  icon: {fileID: 21300000, guid: d33bc1ca27391294aa04a3f78c2ea130, type: 3}
  prefab: {fileID: 5856214617725278827, guid: 934e51fe8ed3e6249b36f03ee969d66b, type: 3}
