%YAML 1.1
%TAG !u! tag:unity3d.com,2011:
--- !u!114 &11400000
MonoBehaviour:
  m_ObjectHideFlags: 0
  m_CorrespondingSourceObject: {fileID: 0}
  m_PrefabInstance: {fileID: 0}
  m_PrefabAsset: {fileID: 0}
  m_GameObject: {fileID: 0}
  m_Enabled: 1
  m_EditorHideFlags: 0
  m_Script: {fileID: 11500000, guid: 277b8aafcbbf00c45b8915804ce2820c, type: 3}
  m_Name: Colour
  m_EditorClassIdentifier: 
  planetMaterial: {fileID: 2100000, guid: d6570cc21b41742188eca71a4bb8d9e7, type: 2}
  biomeColourSettings:
    biomes:
    - gradient:
        serializedVersion: 2
        key0: {r: 0, g: 0, b: 0, a: 0}
        key1: {r: 0, g: 0, b: 0, a: 0}
        key2: {r: 0, g: 0, b: 0, a: 0}
        key3: {r: 0, g: 0, b: 0, a: 0}
        key4: {r: 0, g: 0, b: 0, a: 0}
        key5: {r: 0, g: 0, b: 0, a: 0}
        key6: {r: 0, g: 0, b: 0, a: 0}
        key7: {r: 0, g: 0, b: 0, a: 0}
        ctime0: 0
        ctime1: 65535
        ctime2: 0
        ctime3: 0
        ctime4: 0
        ctime5: 0
        ctime6: 0
        ctime7: 0
        atime0: 0
        atime1: 65535
        atime2: 0
        atime3: 0
        atime4: 0
        atime5: 0
        atime6: 0
        atime7: 0
        m_Mode: 0
        m_NumColorKeys: 2
        m_NumAlphaKeys: 2
      tint: {r: 1, g: 1, b: 1, a: 0}
      startHeight: 0
      tintPercent: 1
    - gradient:
        serializedVersion: 2
        key0: {r: 0, g: 0, b: 0, a: 0}
        key1: {r: 0, g: 0, b: 0, a: 0}
        key2: {r: 0, g: 0, b: 0, a: 0}
        key3: {r: 0, g: 0, b: 0, a: 0}
        key4: {r: 0, g: 0, b: 0, a: 0}
        key5: {r: 0, g: 0, b: 0, a: 0}
        key6: {r: 0, g: 0, b: 0, a: 0}
        key7: {r: 0, g: 0, b: 0, a: 0}
        ctime0: 0
        ctime1: 65535
        ctime2: 0
        ctime3: 0
        ctime4: 0
        ctime5: 0
        ctime6: 0
        ctime7: 0
        atime0: 0
        atime1: 65535
        atime2: 0
        atime3: 0
        atime4: 0
        atime5: 0
        atime6: 0
        atime7: 0
        m_Mode: 0
        m_NumColorKeys: 2
        m_NumAlphaKeys: 2
      tint: {r: 0.8906695, g: 1, b: 0.0047169924, a: 0}
      startHeight: 0.205
      tintPercent: 1
    - gradient:
        serializedVersion: 2
        key0: {r: 0, g: 1, b: 0.1560409, a: 1}
        key1: {r: 0.3294236, g: 1, b: 0.30588233, a: 1}
        key2: {r: 1, g: 1, b: 1, a: 0}
        key3: {r: 0, g: 0, b: 0, a: 0}
        key4: {r: 0, g: 0, b: 0, a: 0}
        key5: {r: 0, g: 0, b: 0, a: 0}
        key6: {r: 0, g: 0, b: 0, a: 0}
        key7: {r: 0, g: 0, b: 0, a: 0}
        ctime0: 0
        ctime1: 12722
        ctime2: 65535
        ctime3: 0
        ctime4: 0
        ctime5: 0
        ctime6: 0
        ctime7: 0
        atime0: 0
        atime1: 65535
        atime2: 0
        atime3: 0
        atime4: 0
        atime5: 0
        atime6: 0
        atime7: 0
        m_Mode: 0
        m_NumColorKeys: 3
        m_NumAlphaKeys: 2
      tint: {r: 1, g: 1, b: 1, a: 0}
      startHeight: 0.812
      tintPercent: 0.319
    noise:
      filterType: 0
      simpleNoiseSettings:
        strength: 1
        numLayers: 3
        baseRoughness: 1
        roughness: 2
        persistence: 1
        centre: {x: 0, y: 0, z: 0}
        minValue: 0
      ridgidNoiseSettings:
        strength: 1
        numLayers: 1
        baseRoughness: 1
        roughness: 2
        persistence: 0.5
        centre: {x: 0, y: 0, z: 0}
        minValue: 0
        weightMultiplier: 0.8
    noiseOffset: 1.7
    noiseStrength: 0.1
    blendAmount: 0.243
  oceanColour:
    serializedVersion: 2
    key0: {r: 1, g: 1, b: 1, a: 1}
    key1: {r: 1, g: 1, b: 1, a: 1}
    key2: {r: 0, g: 0, b: 0, a: 0}
    key3: {r: 0, g: 0, b: 0, a: 0}
    key4: {r: 0, g: 0, b: 0, a: 0}
    key5: {r: 0, g: 0, b: 0, a: 0}
    key6: {r: 0, g: 0, b: 0, a: 0}
    key7: {r: 0, g: 0, b: 0, a: 0}
    ctime0: 0
    ctime1: 65535
    ctime2: 0
    ctime3: 0
    ctime4: 0
    ctime5: 0
    ctime6: 0
    ctime7: 0
    atime0: 0
    atime1: 65535
    atime2: 0
    atime3: 0
    atime4: 0
    atime5: 0
    atime6: 0
    atime7: 0
    m_Mode: 0
    m_NumColorKeys: 2
    m_NumAlphaKeys: 2
